1,test1,ohio,0.0625,carpet,50,2.25,2.10,0
2,sdaf,ohio,0.0625,carpet,80,2.25,2.10,1
3,testagain,indiana,0.06,wood,5,5.15,4.75,0
4,lkjh,ohio,0.0625,carpet,5,2.25,2.10,0
5,lkjh,ohio,0.0625,carpet,651,2.25,2.10,1
6,balsijdva;lskfjas,ohio,0.0625,carpet,54,2.25,2.10,1
